Draft Groups • draft.kings
…
Draft Group Info

dk_get_draft_group()

Get detailed draft group info by draft group ID

The dk_get_draft_group() function provides detailed information about a specific draft group. This includes data such as the sport, game type, start time, and various rules and settings for the draft group. You can use either the draft group ID directly or provide a contest key, and the function will automatically retrieve the corresponding draft group ID.

dk_get_draft_group(draft_group_id = 75284) |> 
  dplyr::select(draftable_id, display_name, player_id, salary, position, status, team_abbreviation, team_id, competition_id, competition_name, competition_start_time)
#> # A tibble: 106 × 11
#>    draftable_id display_name  player_id salary position status team_abbreviation
#>           <dbl> <chr>             <dbl>  <dbl> <chr>    <chr>  <chr>            
#>  1     24633208 Lamar Jackson    877745  18300 QB       None   BAL              
#>  2     24633209 Ja'Marr Chase   1109979  16500 WR       None   CIN              
#>  3     24633210 Joe Burrow       878785  15900 QB       None   CIN              
#>  4     24633211 Mark Andrews     820699  14400 TE       None   BAL              
#>  5     24633212 Joe Mixon        820727  13200 RB       None   CIN              
#>  6     24633213 Tee Higgins      978579  12300 WR       None   CIN              
#>  7     24633261 Lamar Jackson    877745  12200 QB       None   BAL              
#>  8     24633262 Ja'Marr Chase   1109979  11000 WR       None   CIN              
#>  9     24633263 Joe Burrow       878785  10600 QB       None   CIN              
#> 10     24633214 J.K. Dobbins     976513  10500 RB       None   BAL              
#> # ℹ 96 more rows
#> # ℹ 4 more variables: team_id <dbl>, competition_id <dbl>,
#> #   competition_name <chr>, competition_start_time <chr>
…
Player details: Names, positions, team affiliations

Fantasy-relevant information: Salary, projected points, recent performance

Game-specific data: Opponent, game time, location

Additional metadata: Player IDs, roster slot IDs, status

This information is particularly useful for: - Conducting pre-draft research - Identifying value picks based on salary and projected points - Analyzing matchups and game conditions - Building optimized lineups within salary constraints

Let’s examine the output:

dk_get_player_list(draft_group_id = 75284) |> 
  dplyr::select(player_id, first_name, last_name, position, salary, points_per_game, own_rate, is_swappable, in_play_contest, pp, injury_status)
#> # A tibble: 53 × 11
#>    player_id first_name last_name position salary points_per_game own_rate
#>        <dbl> <chr>      <chr>     <chr>     <dbl> <chr>              <dbl>
#>  1    877745 Lamar      Jackson   QB        12200 23.1                  20
#>  2   1109979 Ja'Marr    Chase     WR        11000 17.4                   9
#>  3    878785 Joe        Burrow    QB        10600 16.3                   3
#>  4    820699 Mark       Andrews   TE         9600 12.6                  30
#>  5    820727 Joe        Mixon     RB         8800 15.9                  13
#>  6    978579 Tee        Higgins   WR         8200 12.0                   9
#>  7    976513 J.K.       Dobbins   RB         7000 11.7                  13
#>  8   1108208 Rashod     Bateman   WR         6400 4.7                   20
#>  9    742387 Tyler      Boyd      WR         6200 8.8                    9
#> 10    913163 Tyler      Huntley   QB         6000 5.1                   20
#> # ℹ 43 more rows
#> # ℹ 4 more variables: is_swappable <lgl>, in_play_contest <lgl>, pp <dbl>,
#> #   injury_status <chr>
…
dk_get_player_fp()

Get player fantasy points earned

The dk_get_player_fp() function retrieves fantasy points earned by players for a specific sport, season, and timeframe. Data starts on October 18th, 2022 for NBA.

# `timeframe` represents the week of the season for NFL
dk_get_player_fp(sport = "nfl", season = 2023, timeframe = 10) |>
  dplyr::select(player_id, first_name, last_name, team_id, position, salary, fantasy_points, competition_id, points, sport)
#> # A tibble: 286 × 10
#>    player_id first_name last_name    team_id position salary fantasy_points
#>        <dbl> <chr>      <chr>          <dbl> <chr>     <dbl>          <dbl>
#>  1    557210 Keenan     Allen            357 WR         8800           43.5
#>  2   1062020 CeeDee     Lamb             331 WR         8500           42.5
#>  3    591816 Dak        Prescott         331 QB         6700           41.9
#>  4    607864 Brandin    Cooks            331 WR         4200           35.3
#>  5   1127106 Amon-Ra    St. Brown        334 WR         8300           33.5
#>  6    923915 T.J.       Hockenson        347 TE         5000           33.4
#>  7    910562 Justin     Herbert          357 QB         7700           32.4
#>  8    973966 Brian      Robinson Jr.     363 RB         5400           30.7
#>  9    593587 Mike       Evans            362 WR         7200           29.3
#> 10   1168245 Sam        Howell           363 QB         5900           28.2
#> # ℹ 276 more rows
#> # ℹ 3 more variables: competition_id <dbl>, points <dbl>, sport <chr>
…
